Informe2/com_to_2.vcd
$date
	Tue Sep 19 13:57:57 2023
$end
$version
	Icarus Verilog
$end
$timescale
	1s
$end
$scope module testbech $end
$var wire 4 ! outs [3:0] $end
$var reg 5 " inputs [4:0] $end
$var integer 32 # i [31:0] $end
$scope module dut $end
$var wire 1 $ \-A3 $end
$var wire 1 % A0 $end
$var wire 1 & A1 $end
$var wire 1 ' A2 $end
$var wire 1 ( A3 $end
$var wire 1 ) Sin $end
$var wire 1 * s0 $end
$var wire 1 + s2 $end
$var wire 1 , s4 $end
$var wire 1 - s5 $end
$var wire 1 . s3 $end
$var wire 1 / s1 $end
$var wire 1 0 \-A2 $end
$var wire 1 1 \-A1 $end
$var wire 1 2 \-A0 $end
$scope module Semisumador_0 $end
$var wire 1 ) A $end
$var wire 1 * B $end
$var wire 1 / X $end
$var wire 1 2 Y $end
$upscope $end
$scope module Semisumador_1 $end
$var wire 1 / A $end
$var wire 1 + B $end
$var wire 1 . X $end
$var wire 1 1 Y $end
$upscope $end
$scope module Semisumador_2 $end
$var wire 1 . A $end
$var wire 1 , B $end
$var wire 1 - X $end
$var wire 1 0 Y $end
$upscope $end
$upscope $end
$upscope $end
$enddefinitions $end
$comment Show the parameter values. $end
$dumpall
$end
#0
$dumpvars
02
01
00
0/
0.
0-
0,
0+
0*
0)
0(
0'
0&
0%
0$
b0 #
b0 "
b0 !
$end
#1
b1 !
12
1*
1%
b1 "
b1 #
#2
02
b10 !
11
0*
1+
0%
1&
b10 "
b10 #
#3
b11 !
12
1*
1%
b11 "
b11 #
#4
02
01
b100 !
10
0*
0+
1,
0%
0&
1'
b100 "
b100 #
#5
b101 !
12
1*
1%
b101 "
b101 #
#6
02
b110 !
11
0*
1+
0%
1&
b110 "
b110 #
#7
b111 !
12
1*
1%
b111 "
b111 #
#8
02
01
00
b1000 !
1$
0*
0+
0,
0%
0&
0'
1(
b1000 "
b1000 #
#9
b1001 !
12
1*
1%
b1001 "
b1001 #
#10
02
b1010 !
11
0*
1+
0%
1&
b1010 "
b1010 #
#11
b1011 !
12
1*
1%
b1011 "
b1011 #
#12
02
01
b1100 !
10
0*
0+
1,
0%
0&
1'
b1100 "
b1100 #
#13
b1101 !
12
1*
1%
b1101 "
b1101 #
#14
02
b1110 !
11
0*
1+
0%
1&
b1110 "
b1110 #
#15
b1111 !
12
1*
1%
b1111 "
b1111 #
#16
0$
00
1-
01
1.
b0 !
02
1/
0%
0&
0'
0(
1)
b10000 "
b10000 #
#17
1$
10
0-
11
0.
b1111 !
12
0/
0*
1%
b10001 "
b10001 #
#18
02
1/
b1110 !
11
1*
0+
0%
1&
b10010 "
b10010 #
#19
01
b1101 !
12
0/
0*
1%
b10011 "
b10011 #
#20
1.
02
1/
01
b1100 !
10
1*
1+
0,
0%
0&
1'
b10100 "
b10100 #
#21
00
11
0.
b1011 !
12
0/
0*
1%
b10101 "
b10101 #
#22
02
1/
b1010 !
11
1*
0+
0%
1&
b10110 "
b10110 #
#23
01
b1001 !
12
0/
0*
1%
b10111 "
b10111 #
#24
1-
1.
02
1/
01
00
b1000 !
1$
1*
1+
1,
0%
0&
0'
1(
b11000 "
b11000 #
#25
0$
10
0-
11
0.
b111 !
12
0/
0*
1%
b11001 "
b11001 #
#26
02
1/
b110 !
11
1*
0+
0%
1&
b11010 "
b11010 #
#27
01
b101 !
12
0/
0*
1%
b11011 "
b11011 #
#28
1.
02
1/
01
b100 !
10
1*
1+
0,
0%
0&
1'
b11100 "
b11100 #
#29
00
11
0.
b11 !
12
0/
0*
1%
b11101 "
b11101 #
#30
02
1/
b10 !
11
1*
0+
0%
1&
b11110 "
b11110 #
#31
01
b1 !
12
0/
0*
1%
b11111 "
b11111 #
#32
b100000 #
