Informe2/MiniALU.vcd
$date
	Tue Sep 26 21:42:06 2023
$end
$version
	Icarus Verilog
$end
$timescale
	1s
$end
$scope module testbech $end
$var wire 6 ! outs [5:0] $end
$var reg 11 " inputs [10:0] $end
$var integer 32 # i [31:0] $end
$scope module dut $end
$var wire 1 $ A0 $end
$var wire 1 % A1 $end
$var wire 1 & A2 $end
$var wire 1 ' A3 $end
$var wire 1 ( B0 $end
$var wire 1 ) B1 $end
$var wire 1 * B2 $end
$var wire 1 + B3 $end
$var wire 1 , Cin $end
$var wire 1 - Cout $end
$var wire 1 . SA $end
$var wire 1 / SB $end
$var wire 1 0 SC $end
$var wire 1 1 SC_temp $end
$var wire 1 2 s13 $end
$var wire 1 3 s14 $end
$var wire 1 4 s15 $end
$var wire 1 5 s9 $end
$var wire 1 6 s8 $end
$var wire 1 7 s7 $end
$var wire 1 8 s6 $end
$var wire 1 9 s5 $end
$var wire 1 : s4 $end
$var wire 1 ; s3 $end
$var wire 1 < s2 $end
$var wire 1 = s17 $end
$var wire 1 > s16 $end
$var wire 1 ? s12 $end
$var wire 1 @ s11 $end
$var wire 1 A s10 $end
$var wire 1 B s1 $end
$var wire 1 C s0 $end
$var wire 1 D C3 $end
$var wire 1 E C2 $end
$var wire 1 F C1 $end
$var wire 1 G C0 $end
$scope module 4_bit_adder_2 $end
$var wire 1 , Cin $end
$var wire 1 H s2 $end
$var wire 1 I s1 $end
$var wire 1 J s0 $end
$var wire 1 ? COut $end
$var wire 1 @ C3 $end
$var wire 1 A C2 $end
$var wire 1 5 C1 $end
$var wire 1 6 C0 $end
$var wire 1 7 B3 $end
$var wire 1 8 B2 $end
$var wire 1 9 B1 $end
$var wire 1 : B0 $end
$var wire 1 ; A3 $end
$var wire 1 < A2 $end
$var wire 1 B A1 $end
$var wire 1 C A0 $end
$scope module Sumador_0 $end
$var wire 1 , CIn $end
$var wire 1 J COut $end
$var wire 1 K s2 $end
$var wire 1 L s1 $end
$var wire 1 M s0 $end
$var wire 1 6 Sum $end
$var wire 1 : B $end
$var wire 1 C A $end
$scope module Semisumador_0 $end
$var wire 1 L X $end
$var wire 1 M Y $end
$var wire 1 : B $end
$var wire 1 C A $end
$upscope $end
$scope module Semisumador_1 $end
$var wire 1 M A $end
$var wire 1 , B $end
$var wire 1 K X $end
$var wire 1 6 Y $end
$upscope $end
$upscope $end
$scope module Sumador_1 $end
$var wire 1 J CIn $end
$var wire 1 I COut $end
$var wire 1 N s2 $end
$var wire 1 O s1 $end
$var wire 1 P s0 $end
$var wire 1 5 Sum $end
$var wire 1 9 B $end
$var wire 1 B A $end
$scope module Semisumador_0 $end
$var wire 1 O X $end
$var wire 1 P Y $end
$var wire 1 9 B $end
$var wire 1 B A $end
$upscope $end
$scope module Semisumador_1 $end
$var wire 1 P A $end
$var wire 1 J B $end
$var wire 1 N X $end
$var wire 1 5 Y $end
$upscope $end
$upscope $end
$scope module Sumador_2 $end
$var wire 1 I CIn $end
$var wire 1 H COut $end
$var wire 1 Q s2 $end
$var wire 1 R s1 $end
$var wire 1 S s0 $end
$var wire 1 A Sum $end
$var wire 1 8 B $end
$var wire 1 < A $end
$scope module Semisumador_0 $end
$var wire 1 R X $end
$var wire 1 S Y $end
$var wire 1 8 B $end
$var wire 1 < A $end
$upscope $end
$scope module Semisumador_1 $end
$var wire 1 S A $end
$var wire 1 I B $end
$var wire 1 Q X $end
$var wire 1 A Y $end
$upscope $end
$upscope $end
$scope module Sumador_3 $end
$var wire 1 H CIn $end
$var wire 1 ? COut $end
$var wire 1 T s2 $end
$var wire 1 U s1 $end
$var wire 1 V s0 $end
$var wire 1 @ Sum $end
$var wire 1 7 B $end
$var wire 1 ; A $end
$scope module Semisumador_0 $end
$var wire 1 U X $end
$var wire 1 V Y $end
$var wire 1 7 B $end
$var wire 1 ; A $end
$upscope $end
$scope module Semisumador_1 $end
$var wire 1 V A $end
$var wire 1 H B $end
$var wire 1 T X $end
$var wire 1 @ Y $end
$upscope $end
$upscope $end
$upscope $end
$scope module Com_to_2_0 $end
$var wire 1 ; \-A3 $end
$var wire 1 $ A0 $end
$var wire 1 % A1 $end
$var wire 1 & A2 $end
$var wire 1 ' A3 $end
$var wire 1 . Sin $end
$var wire 1 W s0 $end
$var wire 1 X s2 $end
$var wire 1 Y s4 $end
$var wire 1 Z s5 $end
$var wire 1 [ s3 $end
$var wire 1 \ s1 $end
$var wire 1 < \-A2 $end
$var wire 1 B \-A1 $end
$var wire 1 C \-A0 $end
$scope module Semisumador_0 $end
$var wire 1 . A $end
$var wire 1 W B $end
$var wire 1 \ X $end
$var wire 1 C Y $end
$upscope $end
$scope module Semisumador_1 $end
$var wire 1 \ A $end
$var wire 1 X B $end
$var wire 1 [ X $end
$var wire 1 B Y $end
$upscope $end
$scope module Semisumador_2 $end
$var wire 1 [ A $end
$var wire 1 Y B $end
$var wire 1 Z X $end
$var wire 1 < Y $end
$upscope $end
$upscope $end
$scope module Com_to_2_1 $end
$var wire 1 7 \-A3 $end
$var wire 1 ( A0 $end
$var wire 1 ) A1 $end
$var wire 1 * A2 $end
$var wire 1 + A3 $end
$var wire 1 / Sin $end
$var wire 1 ] s0 $end
$var wire 1 ^ s2 $end
$var wire 1 _ s4 $end
$var wire 1 ` s5 $end
$var wire 1 a s3 $end
$var wire 1 b s1 $end
$var wire 1 8 \-A2 $end
$var wire 1 9 \-A1 $end
$var wire 1 : \-A0 $end
$scope module Semisumador_0 $end
$var wire 1 / A $end
$var wire 1 ] B $end
$var wire 1 b X $end
$var wire 1 : Y $end
$upscope $end
$scope module Semisumador_1 $end
$var wire 1 b A $end
$var wire 1 ^ B $end
$var wire 1 a X $end
$var wire 1 9 Y $end
$upscope $end
$scope module Semisumador_2 $end
$var wire 1 a A $end
$var wire 1 _ B $end
$var wire 1 ` X $end
$var wire 1 8 Y $end
$upscope $end
$upscope $end
$scope module Com_to_2_4 $end
$var wire 1 D \-A3 $end
$var wire 1 6 A0 $end
$var wire 1 5 A1 $end
$var wire 1 A A2 $end
$var wire 1 @ A3 $end
$var wire 1 1 Sin $end
$var wire 1 c s0 $end
$var wire 1 d s2 $end
$var wire 1 e s4 $end
$var wire 1 f s5 $end
$var wire 1 g s3 $end
$var wire 1 h s1 $end
$var wire 1 E \-A2 $end
$var wire 1 F \-A1 $end
$var wire 1 G \-A0 $end
$scope module Semisumador_0 $end
$var wire 1 1 A $end
$var wire 1 c B $end
$var wire 1 h X $end
$var wire 1 G Y $end
$upscope $end
$scope module Semisumador_1 $end
$var wire 1 h A $end
$var wire 1 d B $end
$var wire 1 g X $end
$var wire 1 F Y $end
$upscope $end
$scope module Semisumador_2 $end
$var wire 1 g A $end
$var wire 1 e B $end
$var wire 1 f X $end
$var wire 1 E Y $end
$upscope $end
$upscope $end
$scope module Sumador_3 $end
$var wire 1 2 A $end
$var wire 1 3 B $end
$var wire 1 4 CIn $end
$var wire 1 > COut $end
$var wire 1 i s2 $end
$var wire 1 j s1 $end
$var wire 1 k s0 $end
$var wire 1 = Sum $end
$scope module Semisumador_0 $end
$var wire 1 2 A $end
$var wire 1 3 B $end
$var wire 1 j X $end
$var wire 1 k Y $end
$upscope $end
$scope module Semisumador_1 $end
$var wire 1 k A $end
$var wire 1 4 B $end
$var wire 1 i X $end
$var wire 1 = Y $end
$upscope $end
$upscope $end
$upscope $end
$upscope $end
$enddefinitions $end
$comment Show the parameter values. $end
$dumpall
$end
#0
$dumpvars
0k
0j
0i
0h
0g
0f
0e
0d
0c
0b
0a
0`
0_
0^
0]
0\
0[
0Z
0Y
0X
0W
0V
0U
0T
0S
0R
0Q
0P
0O
0N
0M
0L
0K
0J
0I
0H
0G
0F
0E
0D
0C
0B
0A
0@
0?
0>
0=
0<
0;
0:
09
08
07
06
05
04
03
02
01
00
0/
0.
0-
0,
0+
0*
0)
0(
0'
0&
0%
0$
b0 #
b0 "
b0 !
$end
#1
b1 !
1G
1c
16
1,
b1 "
b1 #
#2
1M
b1 !
1G
1C
1c
1W
16
1$
0,
b10 "
b10 #
#3
1F
1d
b10 !
0G
15
0c
1J
06
1K
1,
b11 "
b11 #
#4
0F
0d
b1 !
1G
05
0C
1:
1c
0J
0W
1]
16
0K
0$
1(
0,
b100 "
b100 #
#5
1F
1d
b10 !
0G
15
0c
1J
06
1K
1,
b101 "
b101 #
#6
1F
1d
1L
0M
b10 !
0G
15
1C
0c
1J
1W
06
0K
1$
0,
b110 "
b110 #
#7
b11 !
1G
1c
16
1,
b111 "
b111 #
#8
0J
1P
0L
b10 !
0G
0C
1B
0:
0c
0W
1X
0]
06
0$
1%
0(
0,
b1000 "
b1000 #
#9
b11 !
1G
1c
16
1,
b1001 "
b1001 #
#10
1M
b11 !
1G
1C
1c
1W
16
1$
0,
b1010 "
b1010 #
#11
1E
1e
0F
1A
0d
1I
b100 !
0G
05
1N
0c
1J
06
1K
1,
b1011 "
b1011 #
#12
0E
0e
1F
0A
1d
0I
b11 !
1G
15
0N
0C
1:
1c
0J
0W
1]
16
0K
0$
1(
0,
b1100 "
b1100 #
#13
1E
1e
0F
1A
0d
1I
b100 !
0G
05
1N
0c
1J
06
1K
1,
b1101 "
b1101 #
#14
1E
1e
0F
1A
0d
1I
1L
0M
b100 !
0G
05
1N
1C
0c
1J
1W
06
0K
1$
0,
b1110 "
b1110 #
#15
b101 !
1G
1c
16
1,
b1111 "
b1111 #
#16
0E
0e
1F
0A
1d
0I
15
0N
0J
0L
b10 !
0G
0C
0B
0:
19
0c
0W
0X
0]
1^
06
0$
0%
0(
1)
0,
b10000 "
b10000 #
#17
b11 !
1G
1c
16
1,
b10001 "
b10001 #
#18
1M
b11 !
1G
1C
1c
1W
16
1$
0,
b10010 "
b10010 #
#19
1E
1e
0F
1A
0d
1I
b100 !
0G
05
1N
0c
1J
06
1K
1,
b10011 "
b10011 #
#20
0E
0e
1F
0A
1d
0I
b11 !
1G
15
0N
0C
1:
1c
0J
0W
1]
16
0K
0$
1(
0,
b10100 "
b10100 #
#21
1E
1e
0F
1A
0d
1I
b100 !
0G
05
1N
0c
1J
06
1K
1,
b10101 "
b10101 #
#22
1E
1e
0F
1A
0d
1I
1L
0M
b100 !
0G
05
1N
1C
0c
1J
1W
06
0K
1$
0,
b10110 "
b10110 #
#23
b101 !
1G
1c
16
1,
b10111 "
b10111 #
#24
0N
0J
1O
0P
0L
b100 !
0G
0C
1B
0:
0c
0W
1X
0]
06
0$
1%
0(
0,
b11000 "
b11000 #
#25
b101 !
1G
1c
16
1,
b11001 "
b11001 #
#26
1M
b101 !
1G
1C
1c
1W
16
1$
0,
b11010 "
b11010 #
#27
1F
1d
b110 !
0G
15
0c
1J
06
1K
1,
b11011 "
b11011 #
#28
0F
0d
b101 !
1G
05
0C
1:
1c
0J
0W
1]
16
0K
0$
1(
0,
b11100 "
b11100 #
#29
1F
1d
b110 !
0G
15
0c
1J
06
1K
1,
b11101 "
b11101 #
#30
1F
1d
1L
0M
b110 !
0G
15
1C
0c
1J
1W
06
0K
1$
0,
b11110 "
b11110 #
#31
b111 !
1G
1c
16
1,
b11111 "
b11111 #
#32
0F
0d
05
0J
0I
1S
0L
0O
b100 !
0G
0C
0B
1<
0:
09
0c
0W
0X
1Y
0]
0^
06
0$
0%
1&
0(
0)
0,
b100000 "
b100000 #
#33
b101 !
1G
1c
16
1,
b100001 "
b100001 #
#34
1M
b101 !
1G
1C
1c
1W
16
1$
0,
b100010 "
b100010 #
#35
1F
1d
b110 !
0G
15
0c
1J
06
1K
1,
b100011 "
b100011 #
#36
0F
0d
b101 !
1G
05
0C
1:
1c
0J
0W
1]
16
0K
0$
1(
0,
b100100 "
b100100 #
#37
1F
1d
b110 !
0G
15
0c
1J
06
1K
1,
b100101 "
b100101 #
#38
1F
1d
1L
0M
b110 !
0G
15
1C
0c
1J
1W
06
0K
1$
0,
b100110 "
b100110 #
#39
b111 !
1G
1c
16
1,
b100111 "
b100111 #
#40
0J
1P
0L
b110 !
0G
0C
1B
0:
0c
0W
1X
0]
06
0$
1%
0(
0,
b101000 "
b101000 #
#41
b111 !
1G
1c
16
1,
b101001 "
b101001 #
#42
1M
b111 !
1G
1C
1c
1W
16
1$
0,
b101010 "
b101010 #
#43
1D
0E
1@
0e
1H
0F
0A
1Q
0d
1I
b1000 !
0G
05
1N
0c
1J
06
1K
1,
b101011 "
b101011 #
#44
0D
1E
0@
1e
0H
1F
1A
0Q
1d
0I
b111 !
1G
15
0N
0C
1:
1c
0J
0W
1]
16
0K
0$
1(
0,
b101100 "
b101100 #
#45
1D
0E
1@
0e
1H
0F
0A
1Q
0d
1I
b1000 !
0G
05
1N
0c
1J
06
1K
1,
b101101 "
b101101 #
#46
1D
0E
1@
0e
1H
0F
0A
1Q
0d
1I
1L
0M
b1000 !
0G
05
1N
1C
0c
1J
1W
06
0K
1$
0,
b101110 "
b101110 #
#47
b1001 !
1G
1c
16
1,
b101111 "
b101111 #
#48
0D
1E
0@
1e
0H
1F
1A
0Q
1d
0I
15
0N
0J
0L
b110 !
0G
0C
0B
0:
19
0c
0W
0X
0]
1^
06
0$
0%
0(
1)
0,
b110000 "
b110000 #
#49
b111 !
1G
1c
16
1,
b110001 "
b110001 #
#50
1M
b111 !
1G
1C
1c
1W
16
1$
0,
b110010 "
b110010 #
#51
1D
0E
1@
0e
1H
0F
0A
1Q
0d
1I
b1000 !
0G
05
1N
0c
1J
06
1K
1,
b110011 "
b110011 #
#52
0D
1E
0@
1e
0H
1F
1A
0Q
1d
0I
b111 !
1G
15
0N
0C
1:
1c
0J
0W
1]
16
0K
0$
1(
0,
b110100 "
b110100 #
#53
1D
0E
1@
0e
1H
0F
0A
1Q
0d
1I
b1000 !
0G
05
1N
0c
1J
06
1K
1,
b110101 "
b110101 #
#54
1D
0E
1@
0e
1H
0F
0A
1Q
0d
1I
1L
0M
b1000 !
0G
05
1N
1C
0c
1J
1W
06
0K
1$
0,
b110110 "
b110110 #
#55
b1001 !
1G
1c
16
1,
b110111 "
b110111 #
#56
0N
0J
1O
0P
0L
b1000 !
0G
0C
1B
0:
0c
0W
1X
0]
06
0$
1%
0(
0,
b111000 "
b111000 #
#57
b1001 !
1G
1c
16
1,
b111001 "
b111001 #
#58
1M
b1001 !
1G
1C
1c
1W
16
1$
0,
b111010 "
b111010 #
#59
1F
1d
b1010 !
0G
15
0c
1J
06
1K
1,
b111011 "
b111011 #
#60
0F
0d
b1001 !
1G
05
0C
1:
1c
0J
0W
1]
16
0K
0$
1(
0,
b111100 "
b111100 #
#61
1F
1d
b1010 !
0G
15
0c
1J
06
1K
1,
b111101 "
b111101 #
#62
1F
1d
1L
0M
b1010 !
0G
15
1C
0c
1J
1W
06
0K
1$
0,
b111110 "
b111110 #
#63
b1011 !
1G
1c
16
1,
b111111 "
b111111 #
#64
0D
0F
1E
0@
0d
1e
0H
05
1A
0Q
0J
0I
0L
0O
b100 !
0G
0C
0B
0<
0:
09
18
0c
0W
0X
0Y
0]
0^
1_
06
0$
0%
0&
0(
0)
1*
0,
b1000000 "
b1000000 #
#65
b101 !
1G
1c
16
1,
b1000001 "
b1000001 #
#66
1M
b101 !
1G
1C
1c
1W
16
1$
0,
b1000010 "
b1000010 #
#67
1F
1d
b110 !
0G
15
0c
1J
06
1K
1,
b1000011 "
b1000011 #
#68
0F
0d
b101 !
1G
05
0C
1:
1c
0J
0W
1]
16
0K
0$
1(
0,
b1000100 "
b1000100 #
#69
1F
1d
b110 !
0G
15
0c
1J
06
1K
1,
b1000101 "
b1000101 #
#70
1F
1d
1L
0M
b110 !
0G
15
1C
0c
1J
1W
06
0K
1$
0,
b1000110 "
b1000110 #
#71
b111 !
1G
1c
16
1,
b1000111 "
b1000111 #
#72
0J
1P
0L
b110 !
0G
0C
1B
0:
0c
0W
1X
0]
06
0$
1%
0(
0,
b1001000 "
b1001000 #
#73
b111 !
1G
1c
16
1,
b1001001 "
b1001001 #
#74
1M
b111 !
1G
1C
1c
1W
16
1$
0,
b1001010 "
b1001010 #
#75
1D
0E
1@
0e
1H
0F
0A
1Q
0d
1I
b1000 !
0G
05
1N
0c
1J
06
1K
1,
b1001011 "
b1001011 #
#76
0D
1E
0@
1e
0H
1F
1A
0Q
1d
0I
b111 !
1G
15
0N
0C
1:
1c
0J
0W
1]
16
0K
0$
1(
0,
b1001100 "
b1001100 #
#77
1D
0E
1@
0e
1H
0F
0A
1Q
0d
1I
b1000 !
0G
05
1N
0c
1J
06
1K
1,
b1001101 "
b1001101 #
#78
1D
0E
1@
0e
1H
0F
0A
1Q
0d
1I
1L
0M
b1000 !
0G
05
1N
1C
0c
1J
1W
06
0K
1$
0,
b1001110 "
b1001110 #
#79
b1001 !
1G
1c
16
1,
b1001111 "
b1001111 #
#80
0D
1E
0@
1e
0H
1F
1A
0Q
1d
0I
15
0N
0J
0L
b110 !
0G
0C
0B
0:
19
0c
0W
0X
0]
1^
06
0$
0%
0(
1)
0,
b1010000 "
b1010000 #
#81
b111 !
1G
1c
16
1,
b1010001 "
b1010001 #
#82
1M
b111 !
1G
1C
1c
1W
16
1$
0,
b1010010 "
b1010010 #
#83
1D
0E
1@
0e
1H
0F
0A
1Q
0d
1I
b1000 !
0G
05
1N
0c
1J
06
1K
1,
b1010011 "
b1010011 #
#84
0D
1E
0@
1e
0H
1F
1A
0Q
1d
0I
b111 !
1G
15
0N
0C
1:
1c
0J
0W
1]
16
0K
0$
1(
0,
b1010100 "
b1010100 #
#85
1D
0E
1@
0e
1H
0F
0A
1Q
0d
1I
b1000 !
0G
05
1N
0c
1J
06
1K
1,
b1010101 "
b1010101 #
#86
1D
0E
1@
0e
1H
0F
0A
1Q
0d
1I
1L
0M
b1000 !
0G
05
1N
1C
0c
1J
1W
06
0K
1$
0,
b1010110 "
b1010110 #
#87
b1001 !
1G
1c
16
1,
b1010111 "
b1010111 #
#88
0N
0J
1O
0P
0L
b1000 !
0G
0C
1B
0:
0c
0W
1X
0]
06
0$
1%
0(
0,
b1011000 "
b1011000 #
#89
b1001 !
1G
1c
16
1,
b1011001 "
b1011001 #
#90
1M
b1001 !
1G
1C
1c
1W
16
1$
0,
b1011010 "
b1011010 #
#91
1F
1d
b1010 !
0G
15
0c
1J
06
1K
1,
b1011011 "
b1011011 #
#92
0F
0d
b1001 !
1G
05
0C
1:
1c
0J
0W
1]
16
0K
0$
1(
0,
b1011100 "
b1011100 #
#93
1F
1d
b1010 !
0G
15
0c
1J
06
1K
1,
b1011101 "
b1011101 #
#94
1F
1d
1L
0M
b1010 !
0G
15
1C
0c
1J
1W
06
0K
1$
0,
b1011110 "
b1011110 #
#95
b1011 !
1G
1c
16
1,
b1011111 "
b1011111 #
#96
0F
0d
05
0Q
0J
0I
1R
0S
0L
0O
b1000 !
0G
0C
0B
1<
0:
09
0c
0W
0X
1Y
0]
0^
06
0$
0%
1&
0(
0)
0,
b1100000 "
b1100000 #
#97
b1001 !
1G
1c
16
1,
b1100001 "
b1100001 #
#98
1M
b1001 !
1G
1C
1c
1W
16
1$
0,
b1100010 "
b1100010 #
#99
1F
1d
b1010 !
0G
15
0c
1J
06
1K
1,
b1100011 "
b1100011 #
#100
0F
0d
b1001 !
1G
05
0C
1:
1c
0J
0W
1]
16
0K
0$
1(
0,
b1100100 "
b1100100 #
#101
1F
1d
b1010 !
0G
15
0c
1J
06
1K
1,
b1100101 "
b1100101 #
#102
1F
1d
1L
0M
b1010 !
0G
15
1C
0c
1J
1W
06
0K
1$
0,
b1100110 "
b1100110 #
#103
b1011 !
1G
1c
16
1,
b1100111 "
b1100111 #
#104
0J
1P
0L
b1010 !
0G
0C
1B
0:
0c
0W
1X
0]
06
0$
1%
0(
0,
b1101000 "
b1101000 #
#105
b1011 !
1G
1c
16
1,
b1101001 "
b1101001 #
#106
1M
b1011 !
1G
1C
1c
1W
16
1$
0,
b1101010 "
b1101010 #
#107
1E
1e
0F
1A
0d
1I
b1100 !
0G
05
1N
0c
1J
06
1K
1,
b1101011 "
b1101011 #
#108
0E
0e
1F
0A
1d
0I
b1011 !
1G
15
0N
0C
1:
1c
0J
0W
1]
16
0K
0$
1(
0,
b1101100 "
b1101100 #
#109
1E
1e
0F
1A
0d
1I
b1100 !
0G
05
1N
0c
1J
06
1K
1,
b1101101 "
b1101101 #
#110
1E
1e
0F
1A
0d
1I
1L
0M
b1100 !
0G
05
1N
1C
0c
1J
1W
06
0K
1$
0,
b1101110 "
b1101110 #
#111
b1101 !
1G
1c
16
1,
b1101111 "
b1101111 #
#112
0E
0e
1F
0A
1d
0I
15
0N
0J
0L
b1010 !
0G
0C
0B
0:
19
0c
0W
0X
0]
1^
06
0$
0%
0(
1)
0,
b1110000 "
b1110000 #
#113
b1011 !
1G
1c
16
1,
b1110001 "
b1110001 #
#114
1M
b1011 !
1G
1C
1c
1W
16
1$
0,
b1110010 "
b1110010 #
#115
1E
1e
0F
1A
0d
1I
b1100 !
0G
05
1N
0c
1J
06
1K
1,
b1110011 "
b1110011 #
#116
0E
0e
1F
0A
1d
0I
b1011 !
1G
15
0N
0C
1:
1c
0J
0W
1]
16
0K
0$
1(
0,
b1110100 "
b1110100 #
#117
1E
1e
0F
1A
0d
1I
b1100 !
0G
05
1N
0c
1J
06
1K
1,
b1110101 "
b1110101 #
#118
1E
1e
0F
1A
0d
1I
1L
0M
b1100 !
0G
05
1N
1C
0c
1J
1W
06
0K
1$
0,
b1110110 "
b1110110 #
#119
b1101 !
1G
1c
16
1,
b1110111 "
b1110111 #
#120
0N
0J
1O
0P
0L
b1100 !
0G
0C
1B
0:
0c
0W
1X
0]
06
0$
1%
0(
0,
b1111000 "
b1111000 #
#121
b1101 !
1G
1c
16
1,
b1111001 "
b1111001 #
#122
1M
b1101 !
1G
1C
1c
1W
16
1$
0,
b1111010 "
b1111010 #
#123
1F
1d
b1110 !
0G
15
0c
1J
06
1K
1,
b1111011 "
b1111011 #
#124
0F
0d
b1101 !
1G
05
0C
1:
1c
0J
0W
1]
16
0K
0$
1(
0,
b1111100 "
b1111100 #
#125
1F
1d
b1110 !
0G
15
0c
1J
06
1K
1,
b1111101 "
b1111101 #
#126
1F
1d
1L
0M
b1110 !
0G
15
1C
0c
1J
1W
06
0K
1$
0,
b1111110 "
b1111110 #
#127
b1111 !
1G
1c
16
1,
b1111111 "
b1111111 #
#128
0F
0E
0d
0e
05
0A
0J
0I
0H
1V
0L
0O
0R
b1000 !
0G
0C
0B
0<
1;
0:
09
08
0c
0W
0X
0Y
0]
0^
0_
06
0$
0%
0&
1'
0(
0)
0*
0,
b10000000 "
b10000000 #
#129
b1001 !
1G
1c
16
1,
b10000001 "
b10000001 #
#130
1M
b1001 !
1G
1C
1c
1W
16
1$
0,
b10000010 "
b10000010 #
#131
1F
1d
b1010 !
0G
15
0c
1J
06
1K
1,
b10000011 "
b10000011 #
#132
0F
0d
b1001 !
1G
05
0C
1:
1c
0J
0W
1]
16
0K
0$
1(
0,
b10000100 "
b10000100 #
#133
1F
1d
b1010 !
0G
15
0c
1J
06
1K
1,
b10000101 "
b10000101 #
#134
1F
1d
1L
0M
b1010 !
0G
15
1C
0c
1J
1W
06
0K
1$
0,
b10000110 "
b10000110 #
#135
b1011 !
1G
1c
16
1,
b10000111 "
b10000111 #
#136
0J
1P
0L
b1010 !
0G
0C
1B
0:
0c
0W
1X
0]
06
0$
1%
0(
0,
b10001000 "
b10001000 #
#137
b1011 !
1G
1c
16
1,
b10001001 "
b10001001 #
#138
1M
b1011 !
1G
1C
1c
1W
16
1$
0,
b10001010 "
b10001010 #
#139
1E
1e
0F
1A
0d
1I
b1100 !
0G
05
1N
0c
1J
06
1K
1,
b10001011 "
b10001011 #
#140
0E
0e
1F
0A
1d
0I
b1011 !
1G
15
0N
0C
1:
1c
0J
0W
1]
16
0K
0$
1(
0,
b10001100 "
b10001100 #
#141
1E
1e
0F
1A
0d
1I
b1100 !
0G
05
1N
0c
1J
06
1K
1,
b10001101 "
b10001101 #
#142
1E
1e
0F
1A
0d
1I
1L
0M
b1100 !
0G
05
1N
1C
0c
1J
1W
06
0K
1$
0,
b10001110 "
b10001110 #
#143
b1101 !
1G
1c
16
1,
b10001111 "
b10001111 #
#144
0E
0e
1F
0A
1d
0I
15
0N
0J
0L
b1010 !
0G
0C
0B
0:
19
0c
0W
0X
0]
1^
06
0$
0%
0(
1)
0,
b10010000 "
b10010000 #
#145
b1011 !
1G
1c
16
1,
b10010001 "
b10010001 #
#146
1M
b1011 !
1G
1C
1c
1W
16
1$
0,
b10010010 "
b10010010 #
#147
1E
1e
0F
1A
0d
1I
b1100 !
0G
05
1N
0c
1J
06
1K
1,
b10010011 "
b10010011 #
#148
0E
0e
1F
0A
1d
0I
b1011 !
1G
15
0N
0C
1:
1c
0J
0W
1]
16
0K
0$
1(
0,
b10010100 "
b10010100 #
#149
1E
1e
0F
1A
0d
1I
b1100 !
0G
05
1N
0c
1J
06
1K
1,
b10010101 "
b10010101 #
#150
1E
1e
0F
1A
0d
1I
1L
0M
b1100 !
0G
05
1N
1C
0c
1J
1W
06
0K
1$
0,
b10010110 "
b10010110 #
#151
b1101 !
1G
1c
16
1,
b10010111 "
b10010111 #
#152
0N
0J
1O
0P
0L
b1100 !
0G
0C
1B
0:
0c
0W
1X
0]
06
0$
1%
0(
0,
b10011000 "
b10011000 #
#153
b1101 !
1G
1c
16
1,
b10011001 "
b10011001 #
#154
1M
b1101 !
1G
1C
1c
1W
16
1$
0,
b10011010 "
b10011010 #
#155
1F
1d
b1110 !
0G
15
0c
1J
06
1K
1,
b10011011 "
b10011011 #
#156
0F
0d
b1101 !
1G
05
0C
1:
1c
0J
0W
1]
16
0K
0$
1(
0,
b10011100 "
b10011100 #
#157
1F
1d
b1110 !
0G
15
0c
1J
06
1K
1,
b10011101 "
b10011101 #
#158
1F
1d
1L
0M
b1110 !
0G
15
1C
0c
1J
1W
06
0K
1$
0,
b10011110 "
b10011110 #
#159
b1111 !
1G
1c
16
1,
b10011111 "
b10011111 #
#160
0F
0d
05
0J
0I
1S
0L
0O
b1100 !
0G
0C
0B
1<
0:
09
0c
0W
0X
1Y
0]
0^
06
0$
0%
1&
0(
0)
0,
b10100000 "
b10100000 #
#161
b1101 !
1G
1c
16
1,
b10100001 "
b10100001 #
#162
1M
b1101 !
1G
1C
1c
1W
16
1$
0,
b10100010 "
b10100010 #
#163
1F
1d
b1110 !
0G
15
0c
1J
06
1K
1,
b10100011 "
b10100011 #
#164
0F
0d
b1101 !
1G
05
0C
1:
1c
0J
0W
1]
16
0K
0$
1(
0,
b10100100 "
b10100100 #
#165
1F
1d
b1110 !
0G
15
0c
1J
06
1K
1,
b10100101 "
b10100101 #
#166
1F
1d
1L
0M
b1110 !
0G
15
1C
0c
1J
1W
06
0K
1$
0,
b10100110 "
b10100110 #
#167
b1111 !
1G
1c
16
1,
b10100111 "
b10100111 #
#168
0J
1P
0L
b1110 !
0G
0C
1B
0:
0c
0W
1X
0]
06
0$
1%
0(
0,
b10101000 "
b10101000 #
#169
b1111 !
1G
1c
16
1,
b10101001 "
b10101001 #
#170
1M
b1111 !
1G
1C
1c
1W
16
1$
0,
b10101010 "
b10101010 #
#171
1-
0D
1?
0E
0@
1T
0e
1H
0F
0A
1Q
0d
1I
b10000 !
0G
05
1N
0c
1J
06
1K
1,
b10101011 "
b10101011 #
#172
0-
1D
0?
1E
1@
0T
1e
0H
1F
1A
0Q
1d
0I
b1111 !
1G
15
0N
0C
1:
1c
0J
0W
1]
16
0K
0$
1(
0,
b10101100 "
b10101100 #
#173
1-
0D
1?
0E
0@
1T
0e
1H
0F
0A
1Q
0d
1I
b10000 !
0G
05
1N
0c
1J
06
1K
1,
b10101101 "
b10101101 #
#174
1-
0D
1?
0E
0@
1T
0e
1H
0F
0A
1Q
0d
1I
1L
0M
b10000 !
0G
05
1N
1C
0c
1J
1W
06
0K
1$
0,
b10101110 "
b10101110 #
#175
b10001 !
1G
1c
16
1,
b10101111 "
b10101111 #
#176
0-
1D
0?
1E
1@
0T
1e
0H
1F
1A
0Q
1d
0I
15
0N
0J
0L
b1110 !
0G
0C
0B
0:
19
0c
0W
0X
0]
1^
06
0$
0%
0(
1)
0,
b10110000 "
b10110000 #
#177
b1111 !
1G
1c
16
1,
b10110001 "
b10110001 #
#178
1M
b1111 !
1G
1C
1c
1W
16
1$
0,
b10110010 "
b10110010 #
#179
1-
0D
1?
0E
0@
1T
0e
1H
0F
0A
1Q
0d
1I
b10000 !
0G
05
1N
0c
1J
06
1K
1,
b10110011 "
b10110011 #
#180
0-
1D
0?
1E
1@
0T
1e
0H
1F
1A
0Q
1d
0I
b1111 !
1G
15
0N
0C
1:
1c
0J
0W
1]
16
0K
0$
1(
0,
b10110100 "
b10110100 #
#181
1-
0D
1?
0E
0@
1T
0e
1H
0F
0A
1Q
0d
1I
b10000 !
0G
05
1N
0c
1J
06
1K
1,
b10110101 "
b10110101 #
#182
1-
0D
1?
0E
0@
1T
0e
1H
0F
0A
1Q
0d
1I
1L
0M
b10000 !
0G
05
1N
1C
0c
1J
1W
06
0K
1$
0,
b10110110 "
b10110110 #
#183
b10001 !
1G
1c
16
1,
b10110111 "
b10110111 #
#184
0N
0J
1O
0P
0L
b10000 !
0G
0C
1B
0:
0c
0W
1X
0]
06
0$
1%
0(
0,
b10111000 "
b10111000 #
#185
b10001 !
1G
1c
16
1,
b10111001 "
b10111001 #
#186
1M
b10001 !
1G
1C
1c
1W
16
1$
0,
b10111010 "
b10111010 #
#187
1F
1d
b10010 !
0G
15
0c
1J
06
1K
1,
b10111011 "
b10111011 #
#188
0F
0d
b10001 !
1G
05
0C
1:
1c
0J
0W
1]
16
0K
0$
1(
0,
b10111100 "
b10111100 #
