Informe2/suma_4_bits.vcd
$date
	Tue Sep 26 09:33:11 2023
$end
$version
	Icarus Verilog
$end
$timescale
	1s
$end
$scope module testbech $end
$var wire 5 ! outs [4:0] $end
$var reg 9 " inputs [8:0] $end
$var integer 32 # i [31:0] $end
$scope module dut $end
$var wire 1 $ A0 $end
$var wire 1 % A1 $end
$var wire 1 & A2 $end
$var wire 1 ' A3 $end
$var wire 1 ( B0 $end
$var wire 1 ) B1 $end
$var wire 1 * B2 $end
$var wire 1 + B3 $end
$var wire 1 , Cin $end
$var wire 1 - s2 $end
$var wire 1 . s1 $end
$var wire 1 / s0 $end
$var wire 1 0 COut $end
$var wire 1 1 C3 $end
$var wire 1 2 C2 $end
$var wire 1 3 C1 $end
$var wire 1 4 C0 $end
$scope module Sumador_0 $end
$var wire 1 $ A $end
$var wire 1 ( B $end
$var wire 1 , CIn $end
$var wire 1 / COut $end
$var wire 1 5 s2 $end
$var wire 1 6 s1 $end
$var wire 1 7 s0 $end
$var wire 1 4 Sum $end
$scope module Semisumador_0 $end
$var wire 1 $ A $end
$var wire 1 ( B $end
$var wire 1 6 X $end
$var wire 1 7 Y $end
$upscope $end
$scope module Semisumador_1 $end
$var wire 1 7 A $end
$var wire 1 , B $end
$var wire 1 5 X $end
$var wire 1 4 Y $end
$upscope $end
$upscope $end
$scope module Sumador_1 $end
$var wire 1 % A $end
$var wire 1 ) B $end
$var wire 1 / CIn $end
$var wire 1 . COut $end
$var wire 1 8 s2 $end
$var wire 1 9 s1 $end
$var wire 1 : s0 $end
$var wire 1 3 Sum $end
$scope module Semisumador_0 $end
$var wire 1 % A $end
$var wire 1 ) B $end
$var wire 1 9 X $end
$var wire 1 : Y $end
$upscope $end
$scope module Semisumador_1 $end
$var wire 1 : A $end
$var wire 1 / B $end
$var wire 1 8 X $end
$var wire 1 3 Y $end
$upscope $end
$upscope $end
$scope module Sumador_2 $end
$var wire 1 & A $end
$var wire 1 * B $end
$var wire 1 . CIn $end
$var wire 1 - COut $end
$var wire 1 ; s2 $end
$var wire 1 < s1 $end
$var wire 1 = s0 $end
$var wire 1 2 Sum $end
$scope module Semisumador_0 $end
$var wire 1 & A $end
$var wire 1 * B $end
$var wire 1 < X $end
$var wire 1 = Y $end
$upscope $end
$scope module Semisumador_1 $end
$var wire 1 = A $end
$var wire 1 . B $end
$var wire 1 ; X $end
$var wire 1 2 Y $end
$upscope $end
$upscope $end
$scope module Sumador_3 $end
$var wire 1 ' A $end
$var wire 1 + B $end
$var wire 1 - CIn $end
$var wire 1 0 COut $end
$var wire 1 > s2 $end
$var wire 1 ? s1 $end
$var wire 1 @ s0 $end
$var wire 1 1 Sum $end
$scope module Semisumador_0 $end
$var wire 1 ' A $end
$var wire 1 + B $end
$var wire 1 ? X $end
$var wire 1 @ Y $end
$upscope $end
$scope module Semisumador_1 $end
$var wire 1 @ A $end
$var wire 1 - B $end
$var wire 1 > X $end
$var wire 1 1 Y $end
$upscope $end
$upscope $end
$upscope $end
$upscope $end
$enddefinitions $end
$comment Show the parameter values. $end
$dumpall
$end
#0
$dumpvars
0@
0?
0>
0=
0<
0;
0:
09
08
07
06
05
04
03
02
01
00
0/
0.
0-
0,
0+
0*
0)
0(
0'
0&
0%
0$
b0 #
b0 "
b0 !
$end
#1
b1 !
14
1,
b1 "
b1 #
#2
17
b1 !
14
1$
0,
b10 "
b10 #
#3
13
1/
b10 !
04
15
1,
b11 "
b11 #
#4
03
0/
b1 !
14
05
0$
1(
0,
b100 "
b100 #
#5
13
1/
b10 !
04
15
1,
b101 "
b101 #
#6
07
16
b10 !
04
05
1$
0,
b110 "
b110 #
#7
b11 !
14
1,
b111 "
b111 #
#8
02
0.
0/
13
08
06
1:
b10 !
04
0$
0(
1%
0,
b1000 "
b1000 #
#9
b11 !
14
1,
b1001 "
b1001 #
#10
17
b11 !
14
1$
0,
b1010 "
b1010 #
#11
12
1.
03
18
1/
b100 !
04
15
1,
b1011 "
b1011 #
#12
02
0.
13
08
0/
b11 !
14
05
0$
1(
0,
b1100 "
b1100 #
#13
12
1.
03
18
1/
b100 !
04
15
1,
b1101 "
b1101 #
#14
07
16
b100 !
04
05
1$
0,
b1110 "
b1110 #
#15
b101 !
14
1,
b1111 "
b1111 #
#16
02
0.
13
08
0/
06
b10 !
04
0$
0(
0%
1)
0,
b10000 "
b10000 #
#17
b11 !
14
1,
b10001 "
b10001 #
#18
17
b11 !
14
1$
0,
b10010 "
b10010 #
#19
12
1.
03
18
1/
b100 !
04
15
1,
b10011 "
b10011 #
#20
02
0.
13
08
0/
b11 !
14
05
0$
1(
0,
b10100 "
b10100 #
#21
12
1.
03
18
1/
b100 !
04
15
1,
b10101 "
b10101 #
#22
07
16
b100 !
04
05
1$
0,
b10110 "
b10110 #
#23
b101 !
14
1,
b10111 "
b10111 #
#24
0/
03
08
06
0:
19
b100 !
04
0$
0(
1%
0,
b11000 "
b11000 #
#25
b101 !
14
1,
b11001 "
b11001 #
#26
17
b101 !
14
1$
0,
b11010 "
b11010 #
#27
13
1/
b110 !
04
15
1,
b11011 "
b11011 #
#28
03
0/
b101 !
14
05
0$
1(
0,
b11100 "
b11100 #
#29
13
1/
b110 !
04
15
1,
b11101 "
b11101 #
#30
07
16
b110 !
04
05
1$
0,
b11110 "
b11110 #
#31
b111 !
14
1,
b11111 "
b11111 #
#32
01
03
0-
0/
0.
12
0;
06
09
1=
b100 !
04
0$
0(
0%
0)
1&
0,
b100000 "
b100000 #
#33
b101 !
14
1,
b100001 "
b100001 #
#34
17
b101 !
14
1$
0,
b100010 "
b100010 #
#35
13
1/
b110 !
04
15
1,
b100011 "
b100011 #
#36
03
0/
b101 !
14
05
0$
1(
0,
b100100 "
b100100 #
#37
13
1/
b110 !
04
15
1,
b100101 "
b100101 #
#38
07
16
b110 !
04
05
1$
0,
b100110 "
b100110 #
#39
b111 !
14
1,
b100111 "
b100111 #
#40
01
0-
12
0;
0.
0/
13
08
06
1:
b110 !
04
0$
0(
1%
0,
b101000 "
b101000 #
#41
b111 !
14
1,
b101001 "
b101001 #
#42
17
b111 !
14
1$
0,
b101010 "
b101010 #
#43
11
1-
02
1;
1.
03
18
1/
b1000 !
04
15
1,
b101011 "
b101011 #
#44
01
0-
12
0;
0.
13
08
0/
b111 !
14
05
0$
1(
0,
b101100 "
b101100 #
#45
11
1-
02
1;
1.
03
18
1/
b1000 !
04
15
1,
b101101 "
b101101 #
#46
07
16
b1000 !
04
05
1$
0,
b101110 "
b101110 #
#47
b1001 !
14
1,
b101111 "
b101111 #
#48
01
0-
12
0;
0.
13
08
0/
06
b110 !
04
0$
0(
0%
1)
0,
b110000 "
b110000 #
#49
b111 !
14
1,
b110001 "
b110001 #
#50
17
b111 !
14
1$
0,
b110010 "
b110010 #
#51
11
1-
02
1;
1.
03
18
1/
b1000 !
04
15
1,
b110011 "
b110011 #
#52
01
0-
12
0;
0.
13
08
0/
b111 !
14
05
0$
1(
0,
b110100 "
b110100 #
#53
11
1-
02
1;
1.
03
18
1/
b1000 !
04
15
1,
b110101 "
b110101 #
#54
07
16
b1000 !
04
05
1$
0,
b110110 "
b110110 #
#55
b1001 !
14
1,
b110111 "
b110111 #
#56
0/
03
08
06
0:
19
b1000 !
04
0$
0(
1%
0,
b111000 "
b111000 #
#57
b1001 !
14
1,
b111001 "
b111001 #
#58
17
b1001 !
14
1$
0,
b111010 "
b111010 #
#59
13
1/
b1010 !
04
15
1,
b111011 "
b111011 #
#60
03
0/
b1001 !
14
05
0$
1(
0,
b111100 "
b111100 #
#61
13
1/
b1010 !
04
15
1,
b111101 "
b111101 #
#62
07
16
b1010 !
04
05
1$
0,
b111110 "
b111110 #
#63
b1011 !
14
1,
b111111 "
b111111 #
#64
01
0-
03
12
0;
0/
0.
06
09
b100 !
04
0$
0(
0%
0)
0&
1*
0,
b1000000 "
b1000000 #
#65
b101 !
14
1,
b1000001 "
b1000001 #
#66
17
b101 !
14
1$
0,
b1000010 "
b1000010 #
#67
13
1/
b110 !
04
15
1,
b1000011 "
b1000011 #
#68
03
0/
b101 !
14
05
0$
1(
0,
b1000100 "
b1000100 #
#69
13
1/
b110 !
04
15
1,
b1000101 "
b1000101 #
#70
07
16
b110 !
04
05
1$
0,
b1000110 "
b1000110 #
#71
b111 !
14
1,
b1000111 "
b1000111 #
#72
01
0-
12
0;
0.
0/
13
08
06
1:
b110 !
04
0$
0(
1%
0,
b1001000 "
b1001000 #
#73
b111 !
14
1,
b1001001 "
b1001001 #
#74
17
b111 !
14
1$
0,
b1001010 "
b1001010 #
#75
11
1-
02
1;
1.
03
18
1/
b1000 !
04
15
1,
b1001011 "
b1001011 #
#76
01
0-
12
0;
0.
13
08
0/
b111 !
14
05
0$
1(
0,
b1001100 "
b1001100 #
#77
11
1-
02
1;
1.
03
18
1/
b1000 !
04
15
1,
b1001101 "
b1001101 #
#78
07
16
b1000 !
04
05
1$
0,
b1001110 "
b1001110 #
#79
b1001 !
14
1,
b1001111 "
b1001111 #
#80
01
0-
12
0;
0.
13
08
0/
06
b110 !
04
0$
0(
0%
1)
0,
b1010000 "
b1010000 #
#81
b111 !
14
1,
b1010001 "
b1010001 #
#82
17
b111 !
14
1$
0,
b1010010 "
b1010010 #
#83
11
1-
02
1;
1.
03
18
1/
b1000 !
04
15
1,
b1010011 "
b1010011 #
#84
01
0-
12
0;
0.
13
08
0/
b111 !
14
05
0$
1(
0,
b1010100 "
b1010100 #
#85
11
1-
02
1;
1.
03
18
1/
b1000 !
04
15
1,
b1010101 "
b1010101 #
#86
07
16
b1000 !
04
05
1$
0,
b1010110 "
b1010110 #
#87
b1001 !
14
1,
b1010111 "
b1010111 #
#88
0/
03
08
06
0:
19
b1000 !
04
0$
0(
1%
0,
b1011000 "
b1011000 #
#89
b1001 !
14
1,
b1011001 "
b1011001 #
#90
17
b1001 !
14
1$
0,
b1011010 "
b1011010 #
#91
13
1/
b1010 !
04
15
1,
b1011011 "
b1011011 #
#92
03
0/
b1001 !
14
05
0$
1(
0,
b1011100 "
b1011100 #
#93
13
1/
b1010 !
04
15
1,
b1011101 "
b1011101 #
#94
07
16
b1010 !
04
05
1$
0,
b1011110 "
b1011110 #
#95
b1011 !
14
1,
b1011111 "
b1011111 #
#96
03
0/
0.
02
0;
06
09
0=
1<
b1000 !
04
0$
0(
0%
0)
1&
0,
b1100000 "
b1100000 #
#97
b1001 !
14
1,
b1100001 "
b1100001 #
#98
17
b1001 !
14
1$
0,
b1100010 "
b1100010 #
#99
13
1/
b1010 !
04
15
1,
b1100011 "
b1100011 #
#100
03
0/
b1001 !
14
05
0$
1(
0,
b1100100 "
b1100100 #
#101
13
1/
b1010 !
04
15
1,
b1100101 "
b1100101 #
#102
07
16
b1010 !
04
05
1$
0,
b1100110 "
b1100110 #
#103
b1011 !
14
1,
b1100111 "
b1100111 #
#104
02
0.
0/
13
08
06
1:
b1010 !
04
0$
0(
1%
0,
b1101000 "
b1101000 #
#105
b1011 !
14
1,
b1101001 "
b1101001 #
#106
17
b1011 !
14
1$
0,
b1101010 "
b1101010 #
#107
12
1.
03
18
1/
b1100 !
04
15
1,
b1101011 "
b1101011 #
#108
02
0.
13
08
0/
b1011 !
14
05
0$
1(
0,
b1101100 "
b1101100 #
#109
12
1.
03
18
1/
b1100 !
04
15
1,
b1101101 "
b1101101 #
#110
07
16
b1100 !
04
05
1$
0,
b1101110 "
b1101110 #
#111
b1101 !
14
1,
b1101111 "
b1101111 #
#112
02
0.
13
08
0/
06
b1010 !
04
0$
0(
0%
1)
0,
b1110000 "
b1110000 #
#113
b1011 !
14
1,
b1110001 "
b1110001 #
#114
17
b1011 !
14
1$
0,
b1110010 "
b1110010 #
#115
12
1.
03
18
1/
b1100 !
04
15
1,
b1110011 "
b1110011 #
#116
02
0.
13
08
0/
b1011 !
14
05
0$
1(
0,
b1110100 "
b1110100 #
#117
12
1.
03
18
1/
b1100 !
04
15
1,
b1110101 "
b1110101 #
#118
07
16
b1100 !
04
05
1$
0,
b1110110 "
b1110110 #
#119
b1101 !
14
1,
b1110111 "
b1110111 #
#120
0/
03
08
06
0:
19
b1100 !
04
0$
0(
1%
0,
b1111000 "
b1111000 #
#121
b1101 !
14
1,
b1111001 "
b1111001 #
#122
17
b1101 !
14
1$
0,
b1111010 "
b1111010 #
#123
13
1/
b1110 !
04
15
1,
b1111011 "
b1111011 #
#124
03
0/
b1101 !
14
05
0$
1(
0,
b1111100 "
b1111100 #
#125
13
1/
b1110 !
04
15
1,
b1111101 "
b1111101 #
#126
07
16
b1110 !
04
05
1$
0,
b1111110 "
b1111110 #
#127
b1111 !
14
1,
b1111111 "
b1111111 #
#128
03
02
00
0/
0.
0-
11
0>
06
09
0<
1@
b1000 !
04
0$
0(
0%
0)
0&
0*
1'
0,
b10000000 "
b10000000 #
#129
b1001 !
14
1,
b10000001 "
b10000001 #
#130
17
b1001 !
14
1$
0,
b10000010 "
b10000010 #
#131
13
1/
b1010 !
04
15
1,
b10000011 "
b10000011 #
#132
03
0/
b1001 !
14
05
0$
1(
0,
b10000100 "
b10000100 #
#133
13
1/
b1010 !
04
15
1,
b10000101 "
b10000101 #
#134
07
16
b1010 !
04
05
1$
0,
b10000110 "
b10000110 #
#135
b1011 !
14
1,
b10000111 "
b10000111 #
#136
02
0.
0/
13
08
06
1:
b1010 !
04
0$
0(
1%
0,
b10001000 "
b10001000 #
#137
b1011 !
14
1,
b10001001 "
b10001001 #
#138
17
b1011 !
14
1$
0,
b10001010 "
b10001010 #
#139
12
1.
03
18
1/
b1100 !
04
15
1,
b10001011 "
b10001011 #
#140
02
0.
13
08
0/
b1011 !
14
05
0$
1(
0,
b10001100 "
b10001100 #
#141
12
1.
03
18
1/
b1100 !
04
15
1,
b10001101 "
b10001101 #
#142
07
16
b1100 !
04
05
1$
0,
b10001110 "
b10001110 #
#143
b1101 !
14
1,
b10001111 "
b10001111 #
#144
02
0.
13
08
0/
06
b1010 !
04
0$
0(
0%
1)
0,
b10010000 "
b10010000 #
#145
b1011 !
14
1,
b10010001 "
b10010001 #
#146
17
b1011 !
14
1$
0,
b10010010 "
b10010010 #
#147
12
1.
03
18
1/
b1100 !
04
15
1,
b10010011 "
b10010011 #
#148
02
0.
13
08
0/
b1011 !
14
05
0$
1(
0,
b10010100 "
b10010100 #
#149
12
1.
03
18
1/
b1100 !
04
15
1,
b10010101 "
b10010101 #
#150
07
16
b1100 !
04
05
1$
0,
b10010110 "
b10010110 #
#151
b1101 !
14
1,
b10010111 "
b10010111 #
#152
0/
03
08
06
0:
19
b1100 !
04
0$
0(
1%
0,
b10011000 "
b10011000 #
#153
b1101 !
14
1,
b10011001 "
b10011001 #
#154
17
b1101 !
14
1$
0,
b10011010 "
b10011010 #
#155
13
1/
b1110 !
04
15
1,
b10011011 "
b10011011 #
#156
03
0/
b1101 !
14
05
0$
1(
0,
b10011100 "
b10011100 #
#157
13
1/
b1110 !
04
15
1,
b10011101 "
b10011101 #
#158
07
16
b1110 !
04
05
1$
0,
b10011110 "
b10011110 #
#159
b1111 !
14
1,
b10011111 "
b10011111 #
#160
00
11
0>
03
0-
0/
0.
12
0;
06
09
1=
b1100 !
04
0$
0(
0%
0)
1&
0,
b10100000 "
b10100000 #
#161
b1101 !
14
1,
b10100001 "
b10100001 #
#162
17
b1101 !
14
1$
0,
b10100010 "
b10100010 #
#163
13
1/
b1110 !
04
15
1,
b10100011 "
b10100011 #
#164
03
0/
b1101 !
14
05
0$
1(
0,
b10100100 "
b10100100 #
#165
13
1/
b1110 !
04
15
1,
b10100101 "
b10100101 #
#166
07
16
b1110 !
04
05
1$
0,
b10100110 "
b10100110 #
#167
b1111 !
14
1,
b10100111 "
b10100111 #
#168
00
11
0>
0-
12
0;
0.
0/
13
08
06
1:
b1110 !
04
0$
0(
1%
0,
b10101000 "
b10101000 #
#169
b1111 !
14
1,
b10101001 "
b10101001 #
#170
17
b1111 !
14
1$
0,
b10101010 "
b10101010 #
#171
10
01
1>
1-
02
1;
1.
03
18
1/
b10000 !
04
15
1,
b10101011 "
b10101011 #
#172
00
11
0>
0-
12
0;
0.
13
08
0/
b1111 !
14
05
0$
1(
0,
b10101100 "
b10101100 #
#173
10
01
1>
1-
02
1;
1.
03
18
1/
b10000 !
04
15
1,
b10101101 "
b10101101 #
#174
07
16
b10000 !
04
05
1$
0,
b10101110 "
b10101110 #
#175
b10001 !
14
1,
b10101111 "
b10101111 #
#176
00
11
0>
0-
12
0;
0.
13
08
0/
06
b1110 !
04
0$
0(
0%
1)
0,
b10110000 "
b10110000 #
#177
b1111 !
14
1,
b10110001 "
b10110001 #
#178
17
b1111 !
14
1$
0,
b10110010 "
b10110010 #
#179
10
01
1>
1-
02
1;
1.
03
18
1/
b10000 !
04
15
1,
b10110011 "
b10110011 #
#180
00
11
0>
0-
12
0;
0.
13
08
0/
b1111 !
14
05
0$
1(
0,
b10110100 "
b10110100 #
#181
10
01
1>
1-
02
1;
1.
03
18
1/
b10000 !
04
15
1,
b10110101 "
b10110101 #
#182
07
16
b10000 !
04
05
1$
0,
b10110110 "
b10110110 #
#183
b10001 !
14
1,
b10110111 "
b10110111 #
#184
0/
03
08
06
0:
19
b10000 !
04
0$
0(
1%
0,
b10111000 "
b10111000 #
#185
b10001 !
14
1,
b10111001 "
b10111001 #
#186
17
b10001 !
14
1$
0,
b10111010 "
b10111010 #
#187
13
1/
b10010 !
04
15
1,
b10111011 "
b10111011 #
#188
03
0/
b10001 !
14
05
0$
1(
0,
b10111100 "
b10111100 #
#189
13
1/
b10010 !
04
15
1,
b10111101 "
b10111101 #
#190
07
16
b10010 !
04
05
1$
0,
b10111110 "
b10111110 #
#191
b10011 !
14
1,
b10111111 "
b10111111 #
#192
00
11
0>
0-
03
12
0;
0/
0.
06
09
b1100 !
04
0$
0(
0%
0)
0&
1*
0,
b11000000 "
b11000000 #
#193
b1101 !
14
1,
b11000001 "
b11000001 #
#194
17
b1101 !
14
1$
0,
b11000010 "
b11000010 #
#195
13
1/
b1110 !
04
15
1,
b11000011 "
b11000011 #
#196
03
0/
b1101 !
14
05
0$
1(
0,
b11000100 "
b11000100 #
#197
13
1/
b1110 !
04
15
1,
b11000101 "
b11000101 #
#198
07
16
b1110 !
04
05
1$
0,
b11000110 "
b11000110 #
#199
b1111 !
14
1,
b11000111 "
b11000111 #
#200
00
11
0>
0-
12
0;
0.
0/
13
08
06
1:
b1110 !
04
0$
0(
1%
0,
b11001000 "
b11001000 #
#201
b1111 !
14
1,
b11001001 "
b11001001 #
#202
17
b1111 !
14
1$
0,
b11001010 "
b11001010 #
#203
10
01
1>
1-
02
1;
1.
03
18
1/
b10000 !
04
15
1,
b11001011 "
b11001011 #
#204
00
11
0>
0-
12
0;
0.
13
08
0/
b1111 !
14
05
0$
1(
0,
b11001100 "
b11001100 #
#205
10
01
1>
1-
02
1;
1.
03
18
1/
b10000 !
04
15
1,
b11001101 "
b11001101 #
#206
07
16
b10000 !
04
05
1$
0,
b11001110 "
b11001110 #
#207
b10001 !
14
1,
b11001111 "
b11001111 #
#208
00
11
0>
0-
12
0;
0.
13
08
0/
06
b1110 !
04
0$
0(
0%
1)
0,
b11010000 "
b11010000 #
#209
b1111 !
14
1,
b11010001 "
b11010001 #
#210
17
b1111 !
14
1$
0,
b11010010 "
b11010010 #
#211
10
01
1>
1-
02
1;
1.
03
18
1/
b10000 !
04
15
1,
b11010011 "
b11010011 #
#212
00
11
0>
0-
12
0;
0.
13
08
0/
b1111 !
14
05
0$
1(
0,
b11010100 "
b11010100 #
#213
10
01
1>
1-
02
1;
1.
03
18
1/
b10000 !
04
15
1,
b11010101 "
b11010101 #
#214
07
16
b10000 !
04
05
1$
0,
b11010110 "
b11010110 #
#215
b10001 !
14
1,
b11010111 "
b11010111 #
#216
0/
03
08
06
0:
19
b10000 !
04
0$
0(
1%
0,
b11011000 "
b11011000 #
#217
b10001 !
14
1,
b11011001 "
b11011001 #
#218
17
b10001 !
14
1$
0,
b11011010 "
b11011010 #
#219
13
1/
b10010 !
04
15
1,
b11011011 "
b11011011 #
#220
03
0/
b10001 !
14
05
0$
1(
0,
b11011100 "
b11011100 #
#221
13
1/
b10010 !
04
15
1,
b11011101 "
b11011101 #
#222
07
16
b10010 !
04
05
1$
0,
b11011110 "
b11011110 #
#223
b10011 !
14
1,
b11011111 "
b11011111 #
#224
03
0/
0.
02
0;
06
09
0=
1<
b10000 !
04
0$
0(
0%
0)
1&
0,
b11100000 "
b11100000 #
#225
b10001 !
14
1,
b11100001 "
b11100001 #
#226
17
b10001 !
14
1$
0,
b11100010 "
b11100010 #
#227
13
1/
b10010 !
04
15
1,
b11100011 "
b11100011 #
#228
03
0/
b10001 !
14
05
0$
1(
0,
b11100100 "
b11100100 #
#229
13
1/
b10010 !
04
15
1,
b11100101 "
b11100101 #
#230
07
16
b10010 !
04
05
1$
0,
b11100110 "
b11100110 #
#231
b10011 !
14
1,
b11100111 "
b11100111 #
#232
02
0.
0/
13
08
06
1:
b10010 !
04
0$
0(
1%
0,
b11101000 "
b11101000 #
#233
b10011 !
14
1,
b11101001 "
b11101001 #
#234
17
b10011 !
14
1$
0,
b11101010 "
b11101010 #
#235
12
1.
03
18
1/
b10100 !
04
15
1,
b11101011 "
b11101011 #
#236
02
0.
13
08
0/
b10011 !
14
05
0$
1(
0,
b11101100 "
b11101100 #
#237
12
1.
03
18
1/
b10100 !
04
15
1,
b11101101 "
b11101101 #
#238
07
16
b10100 !
04
05
1$
0,
b11101110 "
b11101110 #
#239
b10101 !
14
1,
b11101111 "
b11101111 #
#240
02
0.
13
08
0/
06
b10010 !
04
0$
0(
0%
1)
0,
b11110000 "
b11110000 #
#241
b10011 !
14
1,
b11110001 "
b11110001 #
#242
17
b10011 !
14
1$
0,
b11110010 "
b11110010 #
#243
12
1.
03
18
1/
b10100 !
04
15
1,
b11110011 "
b11110011 #
#244
02
0.
13
08
0/
b10011 !
14
05
0$
1(
0,
b11110100 "
b11110100 #
#245
12
1.
03
18
1/
b10100 !
04
15
1,
b11110101 "
b11110101 #
#246
07
16
b10100 !
04
05
1$
0,
b11110110 "
b11110110 #
#247
b10101 !
14
1,
b11110111 "
b11110111 #
#248
0/
03
08
06
0:
19
b10100 !
04
0$
0(
1%
0,
b11111000 "
b11111000 #
#249
b10101 !
14
1,
b11111001 "
b11111001 #
#250
17
b10101 !
14
1$
0,
b11111010 "
b11111010 #
#251
13
1/
b10110 !
04
15
1,
b11111011 "
b11111011 #
#252
03
0/
b10101 !
14
05
0$
1(
0,
b11111100 "
b11111100 #
#253
13
1/
b10110 !
04
15
1,
b11111101 "
b11111101 #
#254
07
16
b10110 !
04
05
1$
0,
b11111110 "
b11111110 #
#255
b10111 !
14
1,
b11111111 "
b11111111 #
#256
b100000000 #
